^C:\USERS\ARIEL\GOOGLE DRIVE\MAGSHIMIN\SECOND YEAR\ADV PROG 2\שיעורי בית\PROJECT TRIVIA\PROJECT TRIVIA\PROJECT TRIVIA\HELPER.CPP
/c /ZI /nologo /W3 /WX- /sdl /Od /Oy- /D _MBCS /Gm /EHsc /RTC1 /MDd /GS /fp:precise /Zc:wchar_t /Zc:forScope /Fo"DEBUG\\" /Fd"DEBUG\VC120.PDB" /Gd /TP /analyze- C:\USERS\ARIEL\GOOGLE DRIVE\MAGSHIMIN\SECOND YEAR\ADV PROG 2\שיעורי בית\PROJECT TRIVIA\PROJECT TRIVIA\PROJECT TRIVIA\HELPER.CPP
^C:\USERS\ARIEL\GOOGLE DRIVE\MAGSHIMIN\SECOND YEAR\ADV PROG 2\שיעורי בית\PROJECT TRIVIA\PROJECT TRIVIA\PROJECT TRIVIA\ROOM.CPP
/c /ZI /nologo /W3 /WX- /sdl /Od /Oy- /D _MBCS /Gm /EHsc /RTC1 /MDd /GS /fp:precise /Zc:wchar_t /Zc:forScope /Fo"DEBUG\\" /Fd"DEBUG\VC120.PDB" /Gd /TP /analyze- C:\USERS\ARIEL\GOOGLE DRIVE\MAGSHIMIN\SECOND YEAR\ADV PROG 2\שיעורי בית\PROJECT TRIVIA\PROJECT TRIVIA\PROJECT TRIVIA\ROOM.CPP
^C:\USERS\ARIEL\GOOGLE DRIVE\MAGSHIMIN\SECOND YEAR\ADV PROG 2\שיעורי בית\PROJECT TRIVIA\PROJECT TRIVIA\PROJECT TRIVIA\GAME.CPP
/c /ZI /nologo /W3 /WX- /sdl /Od /Oy- /D _MBCS /Gm /EHsc /RTC1 /MDd /GS /fp:precise /Zc:wchar_t /Zc:forScope /Fo"DEBUG\\" /Fd"DEBUG\VC120.PDB" /Gd /TP /analyze- C:\USERS\ARIEL\GOOGLE DRIVE\MAGSHIMIN\SECOND YEAR\ADV PROG 2\שיעורי בית\PROJECT TRIVIA\PROJECT TRIVIA\PROJECT TRIVIA\GAME.CPP
^C:\USERS\ARIEL\GOOGLE DRIVE\MAGSHIMIN\SECOND YEAR\ADV PROG 2\שיעורי בית\PROJECT TRIVIA\PROJECT TRIVIA\PROJECT TRIVIA\QUESTION.CPP
/c /ZI /nologo /W3 /WX- /sdl /Od /Oy- /D _MBCS /Gm /EHsc /RTC1 /MDd /GS /fp:precise /Zc:wchar_t /Zc:forScope /Fo"DEBUG\\" /Fd"DEBUG\VC120.PDB" /Gd /TP /analyze- C:\USERS\ARIEL\GOOGLE DRIVE\MAGSHIMIN\SECOND YEAR\ADV PROG 2\שיעורי בית\PROJECT TRIVIA\PROJECT TRIVIA\PROJECT TRIVIA\QUESTION.CPP
^C:\USERS\ARIEL\GOOGLE DRIVE\MAGSHIMIN\SECOND YEAR\ADV PROG 2\שיעורי בית\PROJECT TRIVIA\PROJECT TRIVIA\PROJECT TRIVIA\RECIEVEDMESSAGE.CPP
/c /ZI /nologo /W3 /WX- /sdl /Od /Oy- /D _MBCS /Gm /EHsc /RTC1 /MDd /GS /fp:precise /Zc:wchar_t /Zc:forScope /Fo"DEBUG\\" /Fd"DEBUG\VC120.PDB" /Gd /TP /analyze- C:\USERS\ARIEL\GOOGLE DRIVE\MAGSHIMIN\SECOND YEAR\ADV PROG 2\שיעורי בית\PROJECT TRIVIA\PROJECT TRIVIA\PROJECT TRIVIA\RECIEVEDMESSAGE.CPP
^C:\USERS\ARIEL\GOOGLE DRIVE\MAGSHIMIN\SECOND YEAR\ADV PROG 2\שיעורי בית\PROJECT TRIVIA\PROJECT TRIVIA\PROJECT TRIVIA\TRIVIASERVER.CPP
/c /ZI /nologo /W3 /WX- /sdl /Od /Oy- /D _MBCS /Gm /EHsc /RTC1 /MDd /GS /fp:precise /Zc:wchar_t /Zc:forScope /Fo"DEBUG\\" /Fd"DEBUG\VC120.PDB" /Gd /TP /analyze- C:\USERS\ARIEL\GOOGLE DRIVE\MAGSHIMIN\SECOND YEAR\ADV PROG 2\שיעורי בית\PROJECT TRIVIA\PROJECT TRIVIA\PROJECT TRIVIA\TRIVIASERVER.CPP
^C:\USERS\ARIEL\GOOGLE DRIVE\MAGSHIMIN\SECOND YEAR\ADV PROG 2\שיעורי בית\PROJECT TRIVIA\PROJECT TRIVIA\PROJECT TRIVIA\USER.CPP
/c /ZI /nologo /W3 /WX- /sdl /Od /Oy- /D _MBCS /Gm /EHsc /RTC1 /MDd /GS /fp:precise /Zc:wchar_t /Zc:forScope /Fo"DEBUG\\" /Fd"DEBUG\VC120.PDB" /Gd /TP /analyze- C:\USERS\ARIEL\GOOGLE DRIVE\MAGSHIMIN\SECOND YEAR\ADV PROG 2\שיעורי בית\PROJECT TRIVIA\PROJECT TRIVIA\PROJECT TRIVIA\USER.CPP
^C:\USERS\ARIEL\GOOGLE DRIVE\MAGSHIMIN\SECOND YEAR\ADV PROG 2\שיעורי בית\PROJECT TRIVIA\PROJECT TRIVIA\PROJECT TRIVIA\VALIDATOR.CPP
/c /ZI /nologo /W3 /WX- /sdl /Od /Oy- /D _MBCS /Gm /EHsc /RTC1 /MDd /GS /fp:precise /Zc:wchar_t /Zc:forScope /Fo"DEBUG\\" /Fd"DEBUG\VC120.PDB" /Gd /TP /analyze- C:\USERS\ARIEL\GOOGLE DRIVE\MAGSHIMIN\SECOND YEAR\ADV PROG 2\שיעורי בית\PROJECT TRIVIA\PROJECT TRIVIA\PROJECT TRIVIA\VALIDATOR.CPP
